Name,Date
Rose,2016-09-13
Pat,2001-02-08
Kasper,2006-11-04
Hildagard,2006-02-19
Victoria,1988-07-24
Marlie,2017-05-17
Darryl,2016-06-30
Jarvis,2017-12-17
Kaela,2005-06-22
Toni,2002-05-17
Erhard,2005-04-27
Peggi,2004-05-17
Frannie,2019-05-29
Alden,2009-08-03
Kylen,2010-08-29
Byram,1990-02-21
Mallory,1998-10-17
Karly,2005-11-21
Kissiah,1993-09-18
Chase,2002-08-20
Angie,1988-12-06
Octavius,2015-04-12
Lorraine,1993-09-19
Carlynne,2005-09-10
Kat,1993-03-28
Fidelity,1996-09-22
Marti,2015-01-25
Bunni,2013-07-17
Mirabella,1998-07-16
Hube,2019-08-26
Alexis,2014-03-31
Analiese,1994-10-12
Hayyim,2006-12-19
Sharleen,2013-09-27
Clarinda,2018-06-22
Montague,2012-10-08
Ariel,1995-07-18
Alexandre,1997-07-06
Antonetta,1995-07-12
Feliks,1989-05-29
Davidde,1990-01-02
Elliott,1989-09-27
Ashly,2012-04-24
Angelika,1991-06-03
Matti,1999-06-22
Reginauld,2008-06-19
Paula,1993-12-26
Carlyn,1999-03-31
Sallie,1993-07-15
Anne-corinne,1999-06-04
Annabell,2000-05-06
Duncan,1991-04-12
Jacynth,2012-07-17
Ximenes,2000-10-30
Griz,1991-01-26
Palm,2019-11-02
Quincey,2006-12-21
Riane,2020-01-28
Bard,1991-10-13
Reeta,2009-05-19
Joella,1993-01-10
Artemus,2005-06-05
Maddy,2007-09-05
Rebecca,2015-01-08
Kary,2009-08-12
Helaine,2019-09-18
Vasilis,2017-10-30
Janene,1993-09-14
Isacco,2007-05-17
Andres,2013-01-26
Marv,1992-02-18
Nicolette,2009-03-29
Zonda,2014-02-01
Tony,2001-11-03
Lucien,2017-06-17
Zonda,2011-11-07
Lorrin,2014-07-15
Leola,2006-02-27
Vladimir,1990-05-27
Annora,1989-04-29
Carl,1997-08-08
Larine,2001-10-14
Zacharie,1989-07-11
Lonni,1992-02-03
Dosi,2009-09-22
Che,2000-08-11
Sascha,1989-09-12
Malorie,2001-09-19
Quintin,2000-06-02
Gib,1993-05-21
Sinclare,1991-09-10
Sanford,2014-08-25
Montague,1998-12-18
Katharyn,1989-01-18
Gracia,2011-12-26
Dyann,1994-10-01
Joscelin,2001-12-24
Pollyanna,1999-01-15
Biddy,2010-04-24
Artemus,1994-06-08
